{
    "data": {
        "organization": {
            "website_url": "framer.com",
            "organization": "Framer",
            "location": {
                "country": "NL",
                "city": "Amsterdam",
                "state": "North Holland",
                "street_address": "rozengracht",
                "postal_code": "1180"
            },
            "social_links": {
                "twitter_url": "https://twitter.com/framer",
                "facebook_url": "https://www.facebook.com/groups/framerjs",
                "linkedin_url": "https://www.linkedin.com/company/10228950",
                "instagram_url": null,
                "github_url": null,
                "youtube_url": null,
                "pinterest_url": null,
                "tiktok_url": "https://www.tiktok.com/@@framer"
            },
            "disposable": false,
            "webmail": false,
            "phone_number": true,
            "industries": "Information Technology and Services",
            "founded": null,
            "company_size": "51-250",
            "company_type": "privately held",
            "revenue": "$100M-$250M",
            "accept_all": false,
            "description": "the best interactive design tool for teams. collaborate on designs backed by the power of the web. get it for free on windows, mac, and web \u2014 login.framer.com/sign-up",
            "pattern": "{first}",
            "total_similar": 17,
            "keywords": null,
            "ranking": 9431,
            "whois": {
                "registrar_name": "csc corporate domains, inc.",
                "created_date": "1996-12-30T06:00:00+01:00",
                "referral_url": "http://cscdbs.com"
            },
            "last_updated": "2026-04-09T21:30:27+02:00"
        },
        "emails": [
            {
                "email": "suporte@framer.com",
                "first_name": null,
                "last_name": null,
                "full_name": "",
                "gender": null,
                "phone_number": true,
                "type": "generic",
                "country": null,
                "position": null,
                "department": "",
                "seniority": null,
                "twitter": null,
                "linkedin": null,
                "score": 26,
                "verification": {
                    "date": "2026-04-22T00:00:00+02:00",
                    "status": "invalid"
                },
                "phone_data": [],
                "sources": [
                    {
                        "uri": "https://www.bipprime.com/framer-inc---interactive-design---official-customer-support",
                        "website_url": "www.bipprime.com",
                        "extracted_on": "2025-12-31T01:13:12+01:00",
                        "last_seen_on": "2025-12-31T04:14:54+01:00",
                        "still_on_page": true
                    }
                ]
            },
            {
                "email": "studio@framer.com",
                "first_name": null,
                "last_name": null,
                "full_name": "",
                "gender": null,
                "phone_number": true,
                "type": "generic",
                "country": null,
                "position": null,
                "department": "",
                "seniority": null,
                "twitter": null,
                "linkedin": null,
                "score": 60,
                "verification": {
                    "date": null,
                    "status": null
                },
                "phone_data": [],
                "sources": [
                    {
                        "uri": "https://fiano.at/about-2",
                        "website_url": "fiano.at",
                        "extracted_on": "2025-03-16T04:46:18+01:00",
                        "last_seen_on": "2025-04-10T22:55:31+02:00",
                        "still_on_page": true
                    },
                    {
                        "uri": "https://evanston.framer.website/?via=ludoviclosco",
                        "website_url": "evanston.framer.website",
                        "extracted_on": "2025-05-13T12:39:30+02:00",
                        "last_seen_on": "2025-07-12T10:50:38+02:00",
                        "still_on_page": true
                    },
                    {
                        "uri": "https://www.futuredept.co/kalun",
                        "website_url": "www.futuredept.co",
                        "extracted_on": "2025-08-09T07:53:51+02:00",
                        "last_seen_on": "2025-09-03T19:45:10+02:00",
                        "still_on_page": true
                    },
                    {
                        "uri": "https://www.futuredept.co/projects/china-tang",
                        "website_url": "www.futuredept.co",
                        "extracted_on": "2025-09-08T01:58:07+02:00",
                        "last_seen_on": "2025-10-05T17:01:27+02:00",
                        "still_on_page": true
                    },
                    {
                        "uri": "https://www.futuredept.co/projects/karmuelyoung",
                        "website_url": "www.futuredept.co",
                        "extracted_on": "2025-10-13T11:48:15+02:00",
                        "last_seen_on": "2025-10-31T03:37:01+01:00",
                        "still_on_page": true
                    },
                    {
                        "uri": "https://worldlywatches.com/",
                        "website_url": "worldlywatches.com",
                        "extracted_on": "2025-11-08T14:42:42+01:00",
                        "last_seen_on": "2025-12-13T17:44:33+01:00",
                        "still_on_page": true
                    },
                    {
                        "uri": "https://worldlywatches.com/inventory/6263-18k",
                        "website_url": "worldlywatches.com",
                        "extracted_on": "2025-12-12T05:08:59+01:00",
                        "last_seen_on": "2025-12-28T23:20:55+01:00",
                        "still_on_page": true
                    },
                    {
                        "uri": "https://worldlywatches.com/collection/milsub-5513",
                        "website_url": "worldlywatches.com",
                        "extracted_on": "2026-01-17T01:20:38+01:00",
                        "last_seen_on": "2026-02-06T21:42:54+01:00",
                        "still_on_page": true
                    },
                    {
                        "uri": "https://sam-dias.framer.website/",
                        "website_url": "sam-dias.framer.website",
                        "extracted_on": "2026-03-14T13:59:12+01:00",
                        "last_seen_on": "2026-04-07T22:30:39+02:00",
                        "still_on_page": true
                    },
                    {
                        "uri": "https://sam-dias.framer.website/work/virtual-ground",
                        "website_url": "sam-dias.framer.website",
                        "extracted_on": "2026-05-09T18:22:02+02:00",
                        "last_seen_on": "2026-06-01T23:58:16+02:00",
                        "still_on_page": true
                    }
                ]
            },
            {
                "email": "newyork@framer.com",
                "first_name": null,
                "last_name": null,
                "full_name": "",
                "gender": null,
                "phone_number": false,
                "type": "generic",
                "country": null,
                "position": null,
                "department": "",
                "seniority": null,
                "twitter": null,
                "linkedin": null,
                "score": 54,
                "verification": {
                    "date": null,
                    "status": null
                },
                "phone_data": [],
                "sources": [
                    {
                        "uri": "https://chloelaurenttemplate.framer.website/contact-2",
                        "website_url": "chloelaurenttemplate.framer.website",
                        "extracted_on": "2024-09-18T04:02:46+02:00",
                        "last_seen_on": "2024-12-04T23:46:13+01:00",
                        "still_on_page": true
                    },
                    {
                        "uri": "https://chloelaurent-cfw.framer.website/contact-1",
                        "website_url": "chloelaurent-cfw.framer.website",
                        "extracted_on": "2025-05-19T22:29:38+02:00",
                        "last_seen_on": "2025-07-14T09:33:37+02:00",
                        "still_on_page": true
                    },
                    {
                        "uri": "https://www.theharleyhouse.com/contact-2",
                        "website_url": "www.theharleyhouse.com",
                        "extracted_on": "2025-06-14T18:40:09+02:00",
                        "last_seen_on": "2025-12-14T19:13:20+01:00",
                        "still_on_page": true
                    },
                    {
                        "uri": "https://www.avenuesaintjames.com/contact-2",
                        "website_url": "www.avenuesaintjames.com",
                        "extracted_on": "2026-03-09T04:34:08+01:00",
                        "last_seen_on": "2026-04-08T00:28:40+02:00",
                        "still_on_page": true
                    }
                ]
            },
            {
                "email": "contact@framer.com",
                "first_name": null,
                "last_name": null,
                "full_name": "",
                "gender": null,
                "phone_number": true,
                "type": "generic",
                "country": null,
                "position": null,
                "department": "",
                "seniority": null,
                "twitter": null,
                "linkedin": null,
                "score": 66,
                "verification": {
                    "date": null,
                    "status": null
                },
                "phone_data": [],
                "sources": [
                    {
                        "uri": "https://www.insign.fr/mentions-legales",
                        "website_url": "www.insign.fr",
                        "extracted_on": "2025-02-13T04:01:32+01:00",
                        "last_seen_on": "2025-07-20T15:36:54+02:00",
                        "still_on_page": true
                    },
                    {
                        "uri": "https://www.insign.la/cookie-policy",
                        "website_url": "www.insign.la",
                        "extracted_on": "2025-02-08T20:19:48+01:00",
                        "last_seen_on": "2025-03-22T16:52:47+01:00",
                        "still_on_page": true
                    },
                    {
                        "uri": "https://boost.louattal.com/legal/mentions-l%C3%A9gales",
                        "website_url": "boost.louattal.com",
                        "extracted_on": "2025-03-15T22:27:34+01:00",
                        "last_seen_on": "2026-06-02T10:31:11+02:00",
                        "still_on_page": true
                    },
                    {
                        "uri": "https://shutterflop.insign.fr/mentions-legales",
                        "website_url": "shutterflop.insign.fr",
                        "extracted_on": "2025-03-27T19:50:30+01:00",
                        "last_seen_on": "2025-04-13T22:14:58+02:00",
                        "still_on_page": true
                    },
                    {
                        "uri": "https://www.insign.us/cookie-policy",
                        "website_url": "www.insign.us",
                        "extracted_on": "2025-04-19T04:12:32+02:00",
                        "last_seen_on": "2025-09-01T07:33:02+02:00",
                        "still_on_page": true
                    },
                    {
                        "uri": "https://www.insign.fr/politique-cookies",
                        "website_url": "www.insign.fr",
                        "extracted_on": "2025-05-21T22:48:34+02:00",
                        "last_seen_on": "2026-05-16T14:09:35+02:00",
                        "still_on_page": true
                    },
                    {
                        "uri": "https://www.yxir.com/mentions-legales",
                        "website_url": "www.yxir.com",
                        "extracted_on": "2025-06-15T20:15:03+02:00",
                        "last_seen_on": "2025-07-19T05:53:54+02:00",
                        "still_on_page": true
                    },
                    {
                        "uri": "https://www.jab.coach/mentions-legales",
                        "website_url": "www.jab.coach",
                        "extracted_on": "2025-07-09T00:59:55+02:00",
                        "last_seen_on": "2025-08-08T17:11:27+02:00",
                        "still_on_page": true
                    },
                    {
                        "uri": "https://synthetix-ai.ch/mentions_legales_fr",
                        "website_url": "synthetix-ai.ch",
                        "extracted_on": "2025-08-09T23:21:20+02:00",
                        "last_seen_on": "2025-09-07T02:40:39+02:00",
                        "still_on_page": true
                    },
                    {
                        "uri": "https://sorare.agency/mentions-l%C3%A9gales",
                        "website_url": "sorare.agency",
                        "extracted_on": "2025-10-06T22:49:11+02:00",
                        "last_seen_on": "2025-10-31T04:11:36+01:00",
                        "still_on_page": true
                    },
                    {
                        "uri": "https://ateliermazzina.com/mentions-legales",
                        "website_url": "ateliermazzina.com",
                        "extracted_on": "2025-11-07T15:27:00+01:00",
                        "last_seen_on": "2025-12-14T12:05:57+01:00",
                        "still_on_page": true
                    },
                    {
                        "uri": "https://www.bambboo.com/legal/mention-legales",
                        "website_url": "www.bambboo.com",
                        "extracted_on": "2025-12-08T02:06:36+01:00",
                        "last_seen_on": "2026-04-08T11:20:53+02:00",
                        "still_on_page": true
                    },
                    {
                        "uri": "https://travel.croceo.fr/en/legal-notice",
                        "website_url": "travel.croceo.fr",
                        "extracted_on": "2026-01-15T03:00:11+01:00",
                        "last_seen_on": "2026-02-06T21:33:16+01:00",
                        "still_on_page": true
                    },
                    {
                        "uri": "https://favtool.ai/tool/framer/",
                        "website_url": "favtool.ai",
                        "extracted_on": "2026-02-07T17:34:30+01:00",
                        "last_seen_on": "2026-03-04T04:13:15+01:00",
                        "still_on_page": true
                    },
                    {
                        "uri": "https://tomba.io/robot",
                        "website_url": "tomba.io",
                        "extracted_on": "2026-04-27T15:48:22+02:00",
                        "last_seen_on": "2026-04-28T00:51:35+02:00",
                        "still_on_page": true
                    },
                    {
                        "uri": "https://www.croceo.fr/mentions-legales",
                        "website_url": "www.croceo.fr",
                        "extracted_on": "2026-04-13T04:18:03+02:00",
                        "last_seen_on": "2026-05-16T18:15:58+02:00",
                        "still_on_page": true
                    }
                ]
            },
            {
                "email": "team@framer.com",
                "first_name": null,
                "last_name": null,
                "full_name": "",
                "gender": null,
                "phone_number": false,
                "type": "generic",
                "country": null,
                "position": null,
                "department": "",
                "seniority": null,
                "twitter": null,
                "linkedin": null,
                "score": 51,
                "verification": {
                    "date": null,
                    "status": null
                },
                "phone_data": [],
                "sources": [
                    {
                        "uri": "https://pageflows.com/emails/product/framer/",
                        "website_url": "pageflows.com",
                        "extracted_on": "2023-04-19T03:28:23+02:00",
                        "last_seen_on": "2023-04-24T18:53:52+02:00",
                        "still_on_page": true
                    }
                ]
            }
        ]
    },
    "meta": {
        "total": 29,
        "pageSize": 5,
        "current": 1,
        "total_pages": 6,
        "params": {
            "domain": "framer.com",
            "company": "",
            "page": 1,
            "limit": 5,
            "department": null,
            "country": null,
            "type": "generic",
            "live": false,
            "enrich_mobile": false,
            "webhook_url": null
        }
    }
}
