{
    "data": {
        "organization": {
            "website_url": "framer.com",
            "organization": "Framer",
            "location": {
                "country": "NL",
                "city": "Amsterdam",
                "state": "North Holland",
                "street_address": "rozengracht",
                "postal_code": "1180"
            },
            "social_links": {
                "twitter_url": "https://twitter.com/framer",
                "facebook_url": "https://www.facebook.com/groups/framerjs",
                "linkedin_url": "https://www.linkedin.com/company/10228950",
                "instagram_url": null,
                "github_url": null,
                "youtube_url": null,
                "pinterest_url": null,
                "tiktok_url": "https://www.tiktok.com/@@framer"
            },
            "disposable": false,
            "webmail": false,
            "phone_number": true,
            "industries": "Information Technology and Services",
            "founded": null,
            "company_size": "51-250",
            "company_type": "privately held",
            "revenue": "$100M-$250M",
            "accept_all": false,
            "description": "the best interactive design tool for teams. collaborate on designs backed by the power of the web. get it for free on windows, mac, and web \u2014 login.framer.com/sign-up",
            "pattern": "{first}",
            "total_similar": 17,
            "keywords": null,
            "ranking": 9431,
            "whois": {
                "registrar_name": "csc corporate domains, inc.",
                "created_date": "1996-12-30T06:00:00+01:00",
                "referral_url": "http://cscdbs.com"
            },
            "last_updated": "2026-04-09T21:30:27+02:00"
        },
        "emails": [
            {
                "email": "teresa@framer.com",
                "first_name": "Teresa",
                "last_name": "Lynch",
                "full_name": "Teresa Lynch",
                "gender": "female",
                "phone_number": true,
                "type": "personal",
                "country": "NL",
                "position": "Head People",
                "department": "",
                "seniority": null,
                "twitter": null,
                "linkedin": "https://www.linkedin.com/in/teresalynch1",
                "score": 100,
                "verification": {
                    "date": "2026-04-22T00:00:00+02:00",
                    "status": "valid"
                },
                "phone_data": [
                    {
                        "valid": true,
                        "local_format": "06 25218714",
                        "intl_format": "+31 6 25218714",
                        "e164_format": "+31625218714",
                        "rfc3966_format": "tel:+31-6-25218714",
                        "country_code": "NL",
                        "line_type": "MOBILE",
                        "carrier": "Vodafone Libertel B.V.",
                        "timezones": [
                            "Europe/Amsterdam"
                        ]
                    }
                ],
                "sources": [
                    {
                        "uri": "https://app.tomba.io/verify/teresa@framer.com",
                        "website_url": "app.tomba.io",
                        "extracted_on": "2023-12-12T07:46:25+01:00",
                        "last_seen_on": "2023-12-12T07:46:25+01:00",
                        "still_on_page": true
                    }
                ]
            },
            {
                "email": "nina@framer.com",
                "first_name": null,
                "last_name": null,
                "full_name": "",
                "gender": null,
                "phone_number": false,
                "type": "personal",
                "country": null,
                "position": null,
                "department": "",
                "seniority": null,
                "twitter": null,
                "linkedin": null,
                "score": 26,
                "verification": {
                    "date": "2026-04-22T00:00:00+02:00",
                    "status": "invalid"
                },
                "phone_data": [],
                "sources": [
                    {
                        "uri": "https://app.tomba.io/verify/nina@framer.com",
                        "website_url": "app.tomba.io",
                        "extracted_on": "2022-09-11T12:41:58+02:00",
                        "last_seen_on": "2022-11-09T12:54:42+01:00",
                        "still_on_page": true
                    }
                ]
            },
            {
                "email": "tisho@framer.com",
                "first_name": null,
                "last_name": null,
                "full_name": "",
                "gender": null,
                "phone_number": false,
                "type": "personal",
                "country": null,
                "position": null,
                "department": "",
                "seniority": null,
                "twitter": null,
                "linkedin": null,
                "score": 26,
                "verification": {
                    "date": "2026-04-22T00:00:00+02:00",
                    "status": "invalid"
                },
                "phone_data": [],
                "sources": [
                    {
                        "uri": "http://app.cxoreach.com/contacts/?page_no=16922",
                        "website_url": "app.cxoreach.com",
                        "extracted_on": "2021-05-17T16:30:01+02:00",
                        "last_seen_on": "2024-12-18T15:37:43+01:00",
                        "still_on_page": false
                    }
                ]
            },
            {
                "email": "suporte@framer.com",
                "first_name": null,
                "last_name": null,
                "full_name": "",
                "gender": null,
                "phone_number": true,
                "type": "generic",
                "country": null,
                "position": null,
                "department": "",
                "seniority": null,
                "twitter": null,
                "linkedin": null,
                "score": 26,
                "verification": {
                    "date": "2026-04-22T00:00:00+02:00",
                    "status": "invalid"
                },
                "phone_data": [
                    {
                        "valid": true,
                        "local_format": "(800) 844-7744",
                        "intl_format": "+1 800-844-7744",
                        "e164_format": "+18008447744",
                        "rfc3966_format": "tel:+1-800-844-7744",
                        "country_code": "US",
                        "line_type": "TOLL_FREE",
                        "carrier": "",
                        "timezones": [
                            "America/Adak",
                            "America/Anchorage",
                            "America/Anguilla",
                            "America/Antigua",
                            "America/Barbados",
                            "America/Boise",
                            "America/Cayman",
                            "America/Chicago",
                            "America/Denver",
                            "America/Dominica",
                            "America/Edmonton",
                            "America/Fort_Nelson",
                            "America/Grand_Turk",
                            "America/Grenada",
                            "America/Halifax",
                            "America/Jamaica",
                            "America/Juneau",
                            "America/Los_Angeles",
                            "America/Lower_Princes",
                            "America/Montserrat",
                            "America/Nassau",
                            "America/New_York",
                            "America/North_Dakota/Center",
                            "America/Phoenix",
                            "America/Port_of_Spain",
                            "America/Puerto_Rico",
                            "America/Regina",
                            "America/Santo_Domingo",
                            "America/St_Johns",
                            "America/St_Kitts",
                            "America/St_Lucia",
                            "America/St_Thomas",
                            "America/St_Vincent",
                            "America/Toronto",
                            "America/Tortola",
                            "America/Vancouver",
                            "America/Winnipeg",
                            "Atlantic/Bermuda",
                            "Pacific/Guam",
                            "Pacific/Honolulu",
                            "Pacific/Pago_Pago",
                            "Pacific/Saipan"
                        ]
                    }
                ],
                "sources": [
                    {
                        "uri": "https://www.bipprime.com/framer-inc---interactive-design---official-customer-support",
                        "website_url": "www.bipprime.com",
                        "extracted_on": "2025-12-31T01:13:12+01:00",
                        "last_seen_on": "2025-12-31T04:14:54+01:00",
                        "still_on_page": true
                    }
                ]
            },
            {
                "email": "artur.fortunato@framer.com",
                "first_name": "Artur",
                "last_name": "Fortunato",
                "full_name": "Artur Fortunato",
                "gender": "male",
                "phone_number": false,
                "type": "personal",
                "country": null,
                "position": null,
                "department": "",
                "seniority": null,
                "twitter": null,
                "linkedin": null,
                "score": 100,
                "verification": {
                    "date": "2026-04-22T00:00:00+02:00",
                    "status": "valid"
                },
                "phone_data": [],
                "sources": [
                    {
                        "uri": "https://www.npmjs.com/search?q=keywords:animation",
                        "website_url": "www.npmjs.com",
                        "extracted_on": "2023-02-14T12:35:29+01:00",
                        "last_seen_on": "2023-02-16T18:37:13+01:00",
                        "still_on_page": true
                    }
                ]
            }
        ]
    },
    "meta": {
        "total": 143,
        "pageSize": 5,
        "current": 1,
        "total_pages": 29,
        "params": {
            "domain": "framer.com",
            "company": "",
            "page": 1,
            "limit": 5,
            "department": null,
            "country": null,
            "type": "all",
            "live": false,
            "enrich_mobile": true,
            "webhook_url": null
        }
    }
}
